task3/counter_with_load.vcd
$version Generated by VerilatedVcd $end
$date Sat Nov 16 19:12:32 2024 $end
$timescale 1ps $end

 $scope module TOP $end
  $var wire  1 # clk $end
  $var wire  8 ' count [7:0] $end
  $var wire  1 % ld $end
  $var wire  1 $ rst $end
  $var wire  8 & v [7:0] $end
  $scope module counter $end
   $var wire 32 ( WIDTH [31:0] $end
   $var wire  1 # clk $end
   $var wire  8 ' count [7:0] $end
   $var wire  1 % ld $end
   $var wire  1 $ rst $end
   $var wire  8 & v [7:0] $end
  $upscope $end
 $upscope $end
$enddefinitions $end


#0
1#
1$
0%
b00111100 &
b00000000 '
b00000000000000000000000000001000 (
#1
0#
#2
1#
1%
#3
0#
#4
1#
0%
#5
0#
#6
1#
0$
#7
0#
#8
1#
b00000001 '
#9
0#
#10
1#
b00000010 '
#11
0#
#12
1#
b00000011 '
#13
0#
#14
1#
b00000100 '
#15
0#
#16
1#
b00000101 '
#17
0#
#18
1#
b00000110 '
#19
0#
#20
1#
b00000111 '
#21
0#
#22
1#
b00001000 '
#23
0#
#24
1#
b00001001 '
#25
0#
#26
1#
b00001010 '
#27
0#
#28
1#
b00001011 '
#29
0#
#30
1#
b00001100 '
#31
0#
#32
1#
1$
b00001101 '
#33
0#
#34
1#
0$
b00000000 '
#35
0#
#36
1#
b00000001 '
#37
0#
#38
1#
b00000010 '
#39
0#
#40
1#
b00000011 '
#41
0#
#42
1#
b00000100 '
#43
0#
#44
1#
b00000101 '
#45
0#
#46
1#
b00000110 '
#47
0#
#48
1#
b00000111 '
#49
0#
#50
1#
b00001000 '
#51
0#
#52
1#
b00001001 '
#53
0#
#54
1#
b00001010 '
#55
0#
#56
1#
b00001011 '
#57
0#
#58
1#
b00001100 '
#59
0#
#60
1#
b00001101 '
#61
0#
#62
1#
b00001110 '
#63
0#
#64
1#
b00001111 '
#65
0#
#66
1#
b00010000 '
#67
0#
#68
1#
b00010001 '
#69
0#
#70
1#
b00010010 '
#71
0#
#72
1#
b00010011 '
#73
0#
#74
1#
b00010100 '
#75
0#
#76
1#
1%
b00010101 '
#77
0#
#78
1#
b00111100 '
#79
0#
#80
1#
0%
#81
0#
#82
1#
b00111101 '
#83
0#
#84
1#
1%
b00111110 '
#85
0#
#86
1#
b00111100 '
#87
0#
#88
1#
0%
#89
0#
#90
1#
b00111101 '
#91
0#
#92
1#
b00111110 '
#93
0#
#94
1#
b00111111 '
#95
0#
#96
1#
b01000000 '
#97
0#
#98
1#
b01000001 '
#99
0#
#100
1#
b01000010 '
#101
0#
#102
1#
1%
b01000011 '
#103
0#
#104
1#
0%
b00111100 '
#105
0#
#106
1#
b00111101 '
#107
0#
#108
1#
b00111110 '
#109
0#
#110
1#
b00111111 '
#111
0#
#112
1#
b01000000 '
#113
0#
#114
1#
b01000001 '
#115
0#
#116
1#
b01000010 '
#117
0#
#118
1#
b01000011 '
#119
0#
#120
1#
b01000100 '
#121
0#
#122
1#
b01000101 '
#123
0#
#124
1#
b01000110 '
#125
0#
#126
1#
b01000111 '
#127
0#
#128
1#
b01001000 '
#129
0#
#130
1#
b01001001 '
#131
0#
#132
1#
b01001010 '
#133
0#
#134
1#
b01001011 '
#135
0#
#136
1#
b01001100 '
#137
0#
#138
1#
b01001101 '
#139
0#
#140
1#
b01001110 '
#141
0#
#142
1#
b01001111 '
#143
0#
#144
1#
b01010000 '
#145
0#
#146
1#
b01010001 '
#147
0#
#148
1#
b01010010 '
#149
0#
#150
1#
b01010011 '
#151
0#
#152
1#
b01010100 '
#153
0#
#154
1#
b01010101 '
#155
0#
#156
1#
b01010110 '
#157
0#
#158
1#
b01010111 '
#159
0#
#160
1#
b01011000 '
#161
0#
#162
1#
b01011001 '
#163
0#
#164
1#
b01011010 '
#165
0#
#166
1#
b01011011 '
#167
0#
#168
1#
b01011100 '
#169
0#
#170
1#
b01011101 '
#171
0#
#172
1#
b01011110 '
#173
0#
#174
1#
b01011111 '
#175
0#
#176
1#
b01100000 '
#177
0#
#178
1#
b01100001 '
#179
0#
#180
1#
b01100010 '
#181
0#
#182
1#
b01100011 '
#183
0#
#184
1#
b01100100 '
#185
0#
#186
1#
1%
b01100101 '
#187
0#
#188
1#
0%
b00111100 '
#189
0#
#190
1#
1%
b00111101 '
#191
0#
#192
1#
0%
b00111100 '
#193
0#
#194
1#
b00111101 '
#195
0#
#196
1#
b00111110 '
#197
0#
#198
1#
b00111111 '
#199
0#
#200
1#
b01000000 '
#201
0#
#202
1#
b01000001 '
#203
0#
#204
1#
b01000010 '
#205
0#
#206
1#
b01000011 '
#207
0#
#208
1#
b01000100 '
#209
0#
#210
1#
b01000101 '
#211
0#
#212
1#
b01000110 '
#213
0#
#214
1#
b01000111 '
#215
0#
#216
1#
b01001000 '
#217
0#
#218
1#
b01001001 '
#219
0#
#220
1#
b01001010 '
#221
0#
#222
1#
b01001011 '
#223
0#
#224
1#
b01001100 '
#225
0#
#226
1#
b01001101 '
#227
0#
#228
1#
b01001110 '
#229
0#
#230
1#
b01001111 '
#231
0#
#232
1#
1%
b01010000 '
#233
0#
#234
1#
0%
b00111100 '
#235
0#
#236
1#
b00111101 '
#237
0#
#238
1#
b00111110 '
#239
0#
#240
1#
b00111111 '
#241
0#
#242
1#
1%
b01000000 '
#243
0#
#244
1#
0%
b00111100 '
#245
0#
#246
1#
b00111101 '
#247
0#
#248
1#
b00111110 '
#249
0#
#250
1#
b00111111 '
#251
0#
#252
1#
1%
b01000000 '
#253
0#
#254
1#
0%
b00111100 '
#255
0#
#256
1#
b00111101 '
#257
0#
#258
1#
b00111110 '
#259
0#
#260
1#
b00111111 '
#261
0#
#262
1#
1%
b01000000 '
#263
0#
#264
1#
0%
b00111100 '
#265
0#
#266
1#
b00111101 '
#267
0#
#268
1#
b00111110 '
#269
0#
#270
1#
b00111111 '
#271
0#
#272
1#
b01000000 '
#273
0#
#274
1#
b01000001 '
#275
0#
#276
1#
b01000010 '
#277
0#
#278
1#
b01000011 '
#279
0#
#280
1#
b01000100 '
#281
0#
#282
1#
b01000101 '
#283
0#
#284
1#
b01000110 '
#285
0#
#286
1#
b01000111 '
#287
0#
#288
1#
b01001000 '
#289
0#
#290
1#
b01001001 '
#291
0#
#292
1#
b01001010 '
#293
0#
#294
1#
b01001011 '
#295
0#
#296
1#
b01001100 '
#297
0#
#298
1#
b01001101 '
#299
0#
#300
1#
b01001110 '
#301
0#
#302
1#
b01001111 '
#303
0#
#304
1#
1%
b01010000 '
#305
0#
#306
1#
0%
b00111100 '
#307
0#
#308
1#
1%
b00111101 '
#309
0#
#310
1#
0%
b00111100 '
#311
0#
#312
1#
b00111101 '
#313
0#
#314
1#
b00111110 '
#315
0#
#316
1#
b00111111 '
#317
0#
#318
1#
b01000000 '
#319
0#
#320
1#
b01000001 '
#321
0#
#322
1#
b01000010 '
#323
0#
#324
1#
b01000011 '
#325
0#
#326
1#
b01000100 '
#327
0#
#328
1#
b01000101 '
#329
0#
#330
1#
1%
b01000110 '
#331
0#
#332
1#
0%
b00111100 '
#333
0#
#334
1#
b00111101 '
#335
0#
#336
1#
b00111110 '
#337
0#
#338
1#
b00111111 '
#339
0#
#340
1#
b01000000 '
#341
0#
#342
1#
b01000001 '
#343
0#
#344
1#
b01000010 '
#345
0#
#346
1#
b01000011 '
#347
0#
#348
1#
b01000100 '
#349
0#
#350
1#
b01000101 '
#351
0#
#352
1#
b01000110 '
#353
0#
#354
1#
b01000111 '
#355
0#
#356
1#
b01001000 '
#357
0#
#358
1#
b01001001 '
#359
0#
#360
1#
b01001010 '
#361
0#
#362
1#
b01001011 '
#363
0#
#364
1#
b01001100 '
#365
0#
#366
1#
b01001101 '
#367
0#
#368
1#
b01001110 '
#369
0#
#370
1#
b01001111 '
#371
0#
#372
1#
b01010000 '
#373
0#
#374
1#
b01010001 '
#375
0#
#376
1#
b01010010 '
#377
0#
#378
1#
b01010011 '
#379
0#
#380
1#
b01010100 '
#381
0#
#382
1#
b01010101 '
#383
0#
#384
1#
b01010110 '
#385
0#
#386
1#
b01010111 '
#387
0#
#388
1#
b01011000 '
#389
0#
#390
1#
1%
b01011001 '
#391
0#
#392
1#
0%
b00111100 '
#393
0#
#394
1#
b00111101 '
#395
0#
#396
1#
b00111110 '
#397
0#
#398
1#
b00111111 '
#399
0#
#400
1#
b01000000 '
#401
0#
#402
1#
b01000001 '
#403
0#
#404
1#
1%
b01000010 '
#405
0#
#406
1#
0%
b00111100 '
#407
0#
#408
1#
b00111101 '
#409
0#
#410
1#
b00111110 '
#411
0#
#412
1#
b00111111 '
#413
0#
#414
1#
b01000000 '
#415
0#
#416
1#
b01000001 '
#417
0#
#418
1#
b01000010 '
#419
0#
#420
1#
b01000011 '
#421
0#
#422
1#
b01000100 '
#423
0#
#424
1#
b01000101 '
#425
0#
#426
1#
b01000110 '
#427
0#
#428
1#
b01000111 '
#429
0#
#430
1#
b01001000 '
#431
0#
#432
1#
b01001001 '
#433
0#
#434
1#
b01001010 '
#435
0#
#436
1#
b01001011 '
#437
0#
#438
1#
b01001100 '
#439
0#
#440
1#
b01001101 '
#441
0#
#442
1#
b01001110 '
#443
0#
#444
1#
b01001111 '
#445
0#
#446
1#
b01010000 '
#447
0#
#448
1#
b01010001 '
#449
0#
#450
1#
b01010010 '
#451
0#
#452
1#
b01010011 '
#453
0#
#454
1#
b01010100 '
#455
0#
#456
1#
b01010101 '
#457
0#
#458
1#
b01010110 '
#459
0#
#460
1#
b01010111 '
#461
0#
#462
1#
b01011000 '
#463
0#
#464
1#
b01011001 '
#465
0#
#466
1#
b01011010 '
#467
0#
#468
1#
b01011011 '
#469
0#
#470
1#
b01011100 '
#471
0#
#472
1#
b01011101 '
#473
0#
#474
1#
b01011110 '
#475
0#
#476
1#
b01011111 '
#477
0#
#478
1#
b01100000 '
#479
0#
#480
1#
b01100001 '
#481
0#
#482
1#
b01100010 '
#483
0#
#484
1#
b01100011 '
#485
0#
#486
1#
b01100100 '
#487
0#
#488
1#
b01100101 '
#489
0#
#490
1#
b01100110 '
#491
0#
#492
1#
b01100111 '
#493
0#
#494
1#
b01101000 '
#495
0#
#496
1#
b01101001 '
#497
0#
#498
1#
b01101010 '
#499
0#
#500
1#
b01101011 '
#501
0#
#502
1#
b01101100 '
#503
0#
#504
1#
b01101101 '
#505
0#
#506
1#
b01101110 '
#507
0#
#508
1#
b01101111 '
#509
0#
#510
1#
b01110000 '
#511
0#
#512
1#
b01110001 '
#513
0#
#514
1#
b01110010 '
#515
0#
#516
1#
b01110011 '
#517
0#
#518
1#
b01110100 '
#519
0#
#520
1#
b01110101 '
#521
0#
#522
1#
b01110110 '
#523
0#
#524
1#
b01110111 '
#525
0#
#526
1#
b01111000 '
#527
0#
#528
1#
b01111001 '
#529
0#
#530
1#
b01111010 '
#531
0#
#532
1#
b01111011 '
#533
0#
#534
1#
b01111100 '
#535
0#
#536
1#
b01111101 '
#537
0#
#538
1#
b01111110 '
#539
0#
#540
1#
b01111111 '
#541
0#
#542
1#
b10000000 '
#543
0#
#544
1#
b10000001 '
#545
0#
#546
1#
b10000010 '
#547
0#
#548
1#
b10000011 '
#549
0#
#550
1#
b10000100 '
#551
0#
#552
1#
b10000101 '
#553
0#
#554
1#
b10000110 '
#555
0#
#556
1#
b10000111 '
#557
0#
#558
1#
b10001000 '
#559
0#
#560
1#
b10001001 '
#561
0#
#562
1#
b10001010 '
#563
0#
#564
1#
b10001011 '
#565
0#
#566
1#
b10001100 '
#567
0#
#568
1#
b10001101 '
#569
0#
#570
1#
b10001110 '
#571
0#
#572
1#
1%
b10001111 '
#573
0#
#574
1#
0%
b00111100 '
#575
0#
#576
1#
b00111101 '
#577
0#
#578
1#
b00111110 '
#579
0#
#580
1#
1%
b00111111 '
#581
0#
#582
1#
0%
b00111100 '
#583
0#
#584
1#
b00111101 '
#585
0#
#586
1#
b00111110 '
#587
0#
#588
1#
b00111111 '
#589
0#
#590
1#
b01000000 '
#591
0#
#592
1#
b01000001 '
#593
0#
#594
1#
b01000010 '
#595
0#
#596
1#
b01000011 '
#597
0#
#598
1#
b01000100 '
